Name                           Rating   Type   Games   Won games   Sum of points   Max. points   Min. points  Std. points   Avg. points
=======================================================================================================================================
CoolGuy_0                        1732      l    1000    51.033 %          197060           740          -210      150.715       197.060
tendency_bot_alpha_6             1608      s     477    43.676 %           88800           830          -300      183.958       186.164
tendency_bot_alpha_8             1627      s     517    40.812 %           88680           910          -280      169.770       171.528
greedy_bot                       1580      s     513    13.710 %           11310           630          -340      156.515        22.047
uniform_random_bot                953      s     493     0.000 %         -295610           -40         -1080      159.698      -599.615
Name                           Rating   Type   Games   Won games   Sum of points   Max. points   Min. points  Std. points   Avg. points
=======================================================================================================================================
CoolGuy_1                        1733      l    1000    68.250 %          304040           860          -200      162.699       304.040
tendency_bot_alpha_8             1648      s     495    30.404 %           93330           970          -230      171.769       188.545
tendency_bot_alpha_6             1677      s     483    24.845 %           76200           650          -230      170.302       157.764
greedy_bot                       1495      s     499     9.419 %           20230           570          -390      160.077        40.541
uniform_random_bot                947      s     523     0.000 %         -307700           -70         -1130      155.435      -588.337
Name                           Rating   Type   Games   Won games   Sum of points   Max. points   Min. points  Std. points   Avg. points
=======================================================================================================================================
CoolGuy_2                        1825      l    1000    72.850 %          345740           840          -160      173.628       345.740
tendency_bot_alpha_8             1617      s     492    24.593 %           91950           730          -260      170.316       186.890
tendency_bot_alpha_6             1607      s     501    18.164 %           89130           670          -270      166.176       177.904
greedy_bot                       1500      s     507    11.736 %           30820           520          -350      156.610        60.789
uniform_random_bot                951      s     500     0.000 %         -298290           -60         -1100      154.716      -596.580
Name                           Rating   Type   Games   Won games   Sum of points   Max. points   Min. points  Std. points   Avg. points
=======================================================================================================================================
CoolGuy_3                        1744      l    1000    70.050 %          319000           890          -200      165.410       319.000
tendency_bot_alpha_6             1682      s     505    29.109 %           95740           760          -240      174.466       189.584
tendency_bot_alpha_8             1598      s     499    22.846 %           83260           670          -220      165.984       166.854
greedy_bot                       1537      s     504     7.639 %           22090           520          -330      153.151        43.829
uniform_random_bot                939      s     492     0.000 %         -291060          -120         -1020      156.073      -591.585
Name                           Rating   Type   Games   Won games   Sum of points   Max. points   Min. points  Std. points   Avg. points
=======================================================================================================================================
CoolGuy_4                        1761      l    1000    68.600 %          323870           880          -220      179.306       323.870
tendency_bot_alpha_6             1698      s     498    24.799 %           96090           770          -310      174.980       192.952
tendency_bot_alpha_8             1613      s     530    25.094 %           95660           720          -290      170.553       180.491
greedy_bot                       1486      s     492    11.687 %           25100           550          -290      153.084        51.016
uniform_random_bot                942      s     480     0.000 %         -285570           -50         -1110      161.532      -594.938
Name                           Rating   Type   Games   Won games   Sum of points   Max. points   Min. points  Std. points   Avg. points
=======================================================================================================================================
CoolGuy_5                        1811      l    1000    76.400 %          357050           850          -100      169.863       357.050
tendency_bot_alpha_6             1657      s     521    19.098 %           86890           780          -260      168.849       166.775
tendency_bot_alpha_8             1600      s     490    19.388 %           80770           610          -290      156.753       164.837
greedy_bot                       1487      s     500     8.300 %           27290           590          -320      148.057        54.580
uniform_random_bot                945      s     489     0.000 %         -294970          -110         -1170      160.835      -603.211
Name                           Rating   Type   Games   Won games   Sum of points   Max. points   Min. points  Std. points   Avg. points
=======================================================================================================================================
CoolGuy_6                        1797      l    1000    74.300 %          374620           920          -100      170.376       374.620
tendency_bot_alpha_6             1639      s     518    21.236 %          111500           700          -230      179.942       215.251
tendency_bot_alpha_8             1675      s     486    23.663 %           95930           630          -220      161.309       197.387
greedy_bot                       1464      s     489     6.544 %           15890           570          -310      148.712        32.495
uniform_random_bot                925      s     507     0.000 %         -304240          -110         -1110      148.953      -600.079
